<svg width="40" height="40" viewBox="0 0 40 40" fill="none" xmlns="http://www.w3.org/2000/svg">
<path d="M20 0C8.95417 0 0 8.95417 0 20C0 31.0458 8.95417 40 20 40C31.0458 40 40 31.0458 40 20C40 8.95417 31.0458 0 20 0ZM28.1354 16.3833C28.1437 16.5542 28.1458 16.725 28.1458 16.8917C28.1458 22.1 24.1854 28.1021 16.9396 28.1021C14.7985 28.1056 12.702 27.4907 10.9021 26.3312C11.2083 26.3687 11.5229 26.3833 11.8417 26.3833C13.6875 26.3833 15.3854 25.7563 16.7333 24.6979C15.9119 24.6818 15.116 24.4098 14.4565 23.9198C13.797 23.4299 13.3068 22.7464 13.0542 21.9646C13.6441 22.0768 14.2518 22.0532 14.8312 21.8958C13.9397 21.7155 13.1379 21.2325 12.5619 20.5285C11.9859 19.8245 11.6711 18.9429 11.6708 18.0333V17.9854C12.2021 18.2792 12.8104 18.4583 13.4563 18.4792C12.6204 17.9228 12.0287 17.0681 11.8022 16.0899C11.5756 15.1117 11.7314 14.0839 12.2375 13.2167C13.227 14.4333 14.461 15.4286 15.8595 16.1381C17.2581 16.8477 18.79 17.2555 20.3562 17.3354C20.1571 16.4902 20.2428 15.6029 20.6 14.8115C20.9572 14.02 21.5659 13.3687 22.3314 12.9589C23.0969 12.549 23.9764 12.4036 24.8331 12.5451C25.6898 12.6867 26.4758 13.1073 27.0687 13.7417C27.9504 13.5672 28.7958 13.2439 29.5688 12.7854C29.2749 13.6982 28.6597 14.4733 27.8375 14.9667C28.6184 14.8726 29.381 14.6627 30.1 14.3437C29.5718 15.1352 28.9065 15.8259 28.1354 16.3833Z" fill="#79C0D4"/>
</svg>
