{
    "key": "group_6182e90512a85",
    "title": "General Page",
    "fields": [
        {
            "key": "field_6182e917ddf29",
            "label": "General",
            "name": "",
            "type": "tab",
            "instructions": "",
            "required": 0,
            "conditional_logic": 0,
            "wrapper": {
                "width": "",
                "class": "",
                "id": ""
            },
            "placement": "left",
            "endpoint": 0
        },
        {
            "key": "field_6182e942ddf2a",
            "label": "General",
            "name": "general",
            "type": "clone",
            "instructions": "",
            "required": 0,
            "conditional_logic": 0,
            "wrapper": {
                "width": "",
                "class": "",
                "id": ""
            },
            "clone": [
                "group_6148ca52e48e6"
            ],
            "display": "seamless",
            "layout": "block",
            "prefix_label": 0,
            "prefix_name": 0
        }
    ],
    "location": [
        [
            {
                "param": "post_type",
                "operator": "==",
                "value": "page"
            },
            {
                "param": "page",
                "operator": "!=",
                "value": "5"
            },
            {
                "param": "page",
                "operator": "!=",
                "value": "250"
            },
            {
                "param": "page",
                "operator": "!=",
                "value": "255"
            },
            {
                "param": "page",
                "operator": "!=",
                "value": "124"
            },
            {
                "param": "page",
                "operator": "!=",
                "value": "413"
            }
        ]
    ],
    "menu_order": 0,
    "position": "normal",
    "style": "default",
    "label_placement": "top",
    "instruction_placement": "label",
    "hide_on_screen": "",
    "active": true,
    "description": "",
    "modified": 1635969572
}